{
  "project_info": {
    "project_number": "844887915982",
    "project_id": "nest-academy-app",
    "storage_bucket": "nest-academy-app.appspot.com"
  },
  "client": [
    {
      "client_info": {
        "mobilesdk_app_id": "1:844887915982:android:20d4cbb5958189d253ff9f",
        "android_client_info": {
          "package_name": "com.nestacademyapp"
        }
      },
      "oauth_client": [
        {
          "client_id": "844887915982-qo2jtrlhtivrhokig3uftr8uqcqvtnms.apps.googleusercontent.com",
          "client_type": 3
        }
      ],
      "api_key": [
        {
          "current_key": "AIzaSyAoG_-glzlmdd7owSwWr9wPNw4404fnytA"
        }
      ],
      "services": {
        "appinvite_service": {
          "other_platform_oauth_client": [
            {
              "client_id": "844887915982-qo2jtrlhtivrhokig3uftr8uqcqvtnms.apps.googleusercontent.com",
              "client_type": 3
            },
            {
              "client_id": "844887915982-ahvl2ehstiootdl7o11sul3faf6jlf98.apps.googleusercontent.com",
              "client_type": 2,
              "ios_info": {
                "bundle_id": "org.reactjs.native.example.NestAcademyApp"
              }
            }
          ]
        }
      }
    }
  ],
  "configuration_version": "1"
}